448
00
22
00
23
00
25
11
28
11
-1
00
-1
00
27
11
30
11
-1
00
-1
00
29
11
32
11
-1
00
-1
00
31
11
34
11
-1
00
-1
00
33
11
36
11
-1
00
-1
00
35
11
38
11
-1
00
-1
00
37
11
40
11
-1
00
-1
00
39
11
42
11
-1
00
-1
00
41
11
44
11
-1
00
-1
00
43
11
46
11
-1
00
-1
00
45
11
48
11
-1
00
-1
00
47
11
50
11
-1
00
-1
00
49
11
52
11
-1
00
-1
00
51
11
54
11
-1
00
-1
00
53
11
56
11
-1
00
-1
00
55
11
58
11
-1
00
-1
00
57
11
60
11
-1
00
-1
00
59
11
62
11
-1
00
-1
00
61
11
26
11
-1
00
-1
00
63
11
































































































1
1
1
1
1
1
1
1
1
1
1
1
1
1
1
1
1
1
1
1
1
1
1
1
1
1
2
1
1
1
1
1
1
1
1
1
1
1
1
1
1
1
1
1
1
1
1
1
1
1
1
1
1
1
1
1
1
1
1
1
1
1
1
1
-1
-76
-1
0
-1
0
-1
0
-1
0
-1
0
-1
0
-1
0
-1
0
-1
0
-1
0
-1
0
-1
0
-1
0
-1
0
-1
0
-1
0
-1
0
-1
0
-1
0
-1
0
-1
0
-1
0
-1
0
-1
0
-1
0
-1
0
-1
0
-1
0
-1
0
-1
0
-1
0
-1
0
-1
0
-1
0
-1
0
-1
0
-1
0
-1
0
-1
0
-1
0
-1
0
-1
0
-1
0
-1
0
-1
0
-1
0
-1
0
-1
0
-1
0
-1
0
-1
0
-1
0
-1
0
-1
0
-1
0
-1
0
-1
0
-1
0
-1
0
-1
0
-1
0
-1
0
-1
0
































































